%YAML 1.1
%TAG !u! tag:unity3d.com,2011:
--- !u!1045 &1
EditorBuildSettings:
  m_ObjectHideFlags: 0
  serializedVersion: 2
  m_Scenes:
  - enabled: 1
    path: Assets/Game/Scenes/Core/Core.unity
    guid: 968ef2df666351b4db12a178e7e1035c
  - enabled: 1
    path: Assets/Game/Scenes/Core/MainMenu.unity
    guid: 4c56cfa2164dcf545b617a382a383080
  - enabled: 1
    path: Assets/Game/Scenes/Core/TouchInputScene.unity
    guid: cd654ce4f1d2fa749b97f079530ceaa7
  m_configObjects: {}
